{
  "type": "service_account",
  "project_id": "strong-host-748",
  "private_key_id": "657e3f986c7156d0474731a7e46f4d9b96a3130e",
  "private_key": "-----BEGIN PRIVATE KEY-----\nMIIEvQIBADANBgkqhkiG9w0BAQEFAASCBKcwggSjAgEAAoIBAQCdPauHZwlqGSxa\no7/v4gMvqnxXxWlMTSJ7R69ua7kkE7eDfYoQBYFNlJe4+EHaG5gsdTAgQYzeD8mk\nd9cKIHw9E/0vZ1D3aa0GBHOmAIZzL1Y8DSfjnYlCbLLIyxMPDSkDSdEC3IBaZxji\nOELYHmU0SVagWosP+znAsHFnnDdhiiqo080Cyo7ktvEOpHS50gEppYOQutwEppBm\nO2w/2HIOS1YpXoR/V4U9oe8FjZ0A/HMhWU/2/Q62lmkaWDwUh6glGru5wGgiWLS9\ne/YQZeVWdIAHpzqiEJUZCdXCCLGFAwRd0HWob/k9cPsoEF76rVWW7Py1NP4WVLk0\n1Ob54gW1AgMBAAECggEACi6d/BDQMMEm40sFmPnjPUPGdS6Q5i0mhaImOjnFODtY\nn6388ehRWl3mwfES3pX5MYPN1SuO0isRN9JqJ+XjoFbk3HF4cj+zFxfUX1RbCybD\nvZ7CeFWmt5jvWNuhmntpLk/U4OEOJLcsCtYcKf+J4SwQl9CqfviZ4aBAr7YTdgA7\nlk8U9sR6miY/WuL3JfkOrsilMb5JpBULTyMwlgv9nNo+7YsWJmUCgvFbxtYa3iNF\nx/V9oFARkftiqrvOj0Ek/EVBFGNicFGt2tMQ0baRFVBu9hOUCwsv0cR+OYrteAZQ\nWGETr5E2VOYN00FZozs2gbJMC+KMFMGxd6WzQir/IQKBgQDVOd/H18VRSvEhPRI5\nYIjXMP1ffjdWoiDigtbLnVTZkbVgqvKDRHthbsvF/WguAMT12T1XrnamhfMfmkWD\nGlPU5k6YKklrsg5DvItyzPxTttRmpVehGPSWEE8V5ZX4r9qERIWXdqA8umzB9vDw\nGnvNnf6zmkBzpHeBFJ0L/NRYUQKBgQC8yLQPwPTPfmUsoydRTMlcVJGpc+qE6P2e\nHOk0HB7GyzwzqL9ejOtjGXlKRJtcyfAXl/XUpPU/RyvMeVvYpzdRyaBAxzmwPRb3\nK+Tm6OzLFpS7VxQVhZOf6GM92m2dLXGW3nt+iLPc/72m/a1Meg5MXmz9MroR5sX4\nrQWKtO6iJQKBgDb/XoElXnfBZMC2B+VUyPb4Y+IlpBBscR77sHuEcUZNFwOAFF1X\nZJuVAGppGl4DRMpE5lWfYmtBUZxtJlDSkZzwaoVFIvrsSlGeaDmMNelB1zdCnn+m\n+C9ctYloVm52rV5AblTK/DmtvC+riinkKtq2TeP1fXpWiZx5vKhC5mKBAoGARq73\nDDb48n+mrhHgdMZFVnarm0C1fFIoM30rq8EjnNcXkVgLXwFwWMh+61nIufM6G/tf\npeClmq2xLnv58aKaSdsuT1LIvL4CzUT4DaUEk/2+bm5qLKy421SNY+lWxVTwhMaE\ngpn4jjSK8+1jZ5EDrYBlWmAV3wIC+dr+ijK4bqkCgYEAi9gZ4Mxx80NWHip6dhmv\nYATxVKKUB45y2BbdtZ0cXVxMRvyztg+F1hTnIFRBK+/ATPPnDfJIyhgGc5tYn2Aj\nj/ZschWx4KOddSrS1PKc5qOXoYiaXKjrrSqh+RNjYK1PNTqCkqLpoVFZDCiMwJR9\nDTNFFiYEZe3NrJeaIRiN/ZU=\n-----END PRIVATE KEY-----\n",
  "client_email": "capex-booking-sa-stag@strong-host-748.iam.gserviceaccount.com",
  "client_id": "109648213372527869093",
  "auth_uri": "https://accounts.google.com/o/oauth2/auth",
  "token_uri": "https://oauth2.googleapis.com/token",
  "auth_provider_x509_cert_url": "https://www.googleapis.com/oauth2/v1/certs",
  "client_x509_cert_url": "https://www.googleapis.com/robot/v1/metadata/x509/capex-booking-sa-stag%40strong-host-748.iam.gserviceaccount.com"
}
